{
   "fields":{
      "parent": {},
      "project":{
         "id":"11531"
      },
      "summary":"{summary}",
      "issuetype":{
         "id":"8"
      },
      "description":"{description}"
   }
}
